…
    ## Loading required package: lubridate

    ## 
    ## Attaching package: 'lubridate'

    ## The following object is masked from 'package:base':
    ## 
    ##     date

``` r
trump_tweets <- import('./data/trump.json') %>% as_tibble
trump_tweets
```

    ## # A tibble: 17,936 x 7
    ##    source  text   created_at retweet_count favorite_count is_retweet id_str
    ##    <chr>   <chr>  <chr>              <int>          <int> <lgl>      <chr> 
    ##  1 Twitte… Heads… Mon Dec 3…         20519          74566 FALSE      10798…
    ##  2 Twitte… ....S… Mon Dec 3…         17027          63013 FALSE      10798…
    ##  3 Twitte… It’s … Mon Dec 3…         29355         125931 FALSE      10797…
    ##  4 Twitte… I’m i… Mon Dec 3…         30742         131151 FALSE      10797…
    ##  5 Twitte… I’m i… Mon Dec 3…          1123           4217 FALSE      10797…
    ##  6 Twitte… I am … Mon Dec 3…         25252         111582 FALSE      10797…
    ##  7 Twitte… I cam… Mon Dec 3…         21960          90883 FALSE      10797…
    ##  8 Twitte… .....… Mon Dec 3…         15081          72353 FALSE      10797…
    ##  9 Twitte… ...I … Mon Dec 3…         22000         100819 FALSE      10797…
    ## 10 Twitte… If an… Mon Dec 3…         17379          79095 FALSE      10797…
    ## # … with 17,926 more rows
…
