Chapter 3 The whole game | Automated Content Analysis
…
require(rio)

## Loading required package: rio

## 
## Attaching package: 'rio'

## The following object is masked from 'package:quanteda':
## 
##     convert

trump_tweets <- import('./data/trump.json') %>% as_tibble
trump_tweets

## # A tibble: 17,936 x 7
##    source  text       created_at  retweet_count favorite_count is_retweet id_str
##    <chr>   <chr>      <chr>               <int>          <int> <lgl>      <chr> 
##  1 Twitte… Heads of … Mon Dec 31…         20519          74566 FALSE      10798…
##  2 Twitte… ....Senat… Mon Dec 31…         17027          63013 FALSE      10798…
##  3 Twitte… It’s incr… Mon Dec 31…         29355         125931 FALSE      10797…
##  4 Twitte… I’m in th… Mon Dec 31…         30742         131151 FALSE      10797…
##  5 Twitte… I’m in th… Mon Dec 31…          1123           4217 FALSE      10797…
##  6 Twitte… I am the … Mon Dec 31…         25252         111582 FALSE      10797…
##  7 Twitte… I campaig… Mon Dec 31…         21960          90883 FALSE      10797…
##  8 Twitte… .....Exce… Mon Dec 31…         15081          72353 FALSE      10797…
##  9 Twitte… ...I camp… Mon Dec 31…         22000         100819 FALSE      10797…
## 10 Twitte… If anybod… Mon Dec 31…         17379          79095 FALSE      10797…
## # … with 17,926 more rows

Up to this point, you might notice this book uses tidyverse—or more precisely, dplyr—for data manipulation. Yes. If you are not familar with dplyr, it is a good idea for you to read the book R4DS (available online). The book you are reading now is not an introduction to dplyr. But as a refresher, let me show you all the dplyr you will need to deal with 80% of the situations. You probably only need to know 5 verbs and then combine them together. You may call these 6 verbs “Big Six” if you like.

3.2 An express summary of tidyverse

The first verb is select. It is used to select particular column(s) from a data frame. By the way, our data is a tibble, an arguably nicer version of data frame. Suppose we want to select only the columns source and text.

trump_tweets %>% select(source, text)

## # A tibble: 17,936 x 2
##    source           text                                                        
##    <chr>            <chr>                                                       
##  1 Twitter for iPh… Heads of countries are calling wanting to know why Senator …
##  2 Twitter for iPh… ....Senator Schumer, more than a year longer than any other…
##  3 Twitter for iPh… It’s incredible how Democrats can all use their ridiculous …
##  4 Twitter for iPh… I’m in the Oval Office. Democrats, come back from vacation …
##  5 Twitter for iPh… I’m in the Oval Office. Democrats, come back from vacation …
##  6 Twitter for iPh… I am the only person in America who could say that, “I’m br…
##  7 Twitter for iPh… I campaigned on Border Security, which you cannot have with…
##  8 Twitter for iPh… .....Except the results are FAR BETTER than I ever said the…
##  9 Twitter for iPh… ...I campaigned on getting out of Syria and other places. N…
## 10 Twitter for iPh… If anybody but Donald Trump did what I did in Syria, which …
## # … with 17,926 more rows

The second verb is filter. It is used to filter rows from a tibble based on certain criteria. Suppose you want to get all the rows which were tweeted from an Android phone.

trump_tweets %>% filter(str_detect(source, "Android")) %>% select(source, text)

## # A tibble: 7,302 x 2
##    source           text                                                        
##    <chr>            <chr>                                                       
##  1 Twitter for And… "Watch @JudgeJeanine on @FoxNews tonight at 9:00 P.M."      
##  2 Twitter for And… "ObamaCare will explode and we will all get together and pi…
##  3 Twitter for And… "LinkedIn Workforce Report: January and February were the s…
##  4 Twitter for And… "Don't let the FAKE NEWS tell you that there is big infight…
##  5 Twitter for And… "I am working on a new system where there will be competiti…
##  6 Twitter for And… "Don't worry, getting rid of state lines, which will promot…
##  7 Twitter for And… "For eight years Russia \"ran over\" President Obama, got s…
##  8 Twitter for And… "Our wonderful new Healthcare Bill is now out for review an…
##  9 Twitter for And… "122 vicious prisoners, released by the Obama Administratio…
## 10 Twitter for And… "Who was it that secretly said to Russian President, \"Tell…
## # … with 7,292 more rows

In the above example, we combine two verbs (filter and select) using the pipe (%>%) operator. Some might disagree, but this method is more elegant. If you can tell a story using your dplyr code, it is probably a good code. For example, you can tell a story using the above code as such: We have our trump_tweets data, and then we filter all tweets where source contains “Android”, and then we select only the source and text columns.

So, the pipe operators in the above code are corresponding to all “and then” in the story.

From the above story, you might notice that the source column is recording from which device the tweet was tweeted, e.g. Android.

It is a good idea to see what are the other variants of “source” in our data. The next verb that we need to know is group_by.

trump_tweets %>% group_by(source)

## # A tibble: 17,936 x 7
## # Groups:   source [16]
##    source  text       created_at  retweet_count favorite_count is_retweet id_str
##    <chr>   <chr>      <chr>               <int>          <int> <lgl>      <chr> 
##  1 Twitte… Heads of … Mon Dec 31…         20519          74566 FALSE      10798…
##  2 Twitte… ....Senat… Mon Dec 31…         17027          63013 FALSE      10798…
##  3 Twitte… It’s incr… Mon Dec 31…         29355         125931 FALSE      10797…
##  4 Twitte… I’m in th… Mon Dec 31…         30742         131151 FALSE      10797…
##  5 Twitte… I’m in th… Mon Dec 31…          1123           4217 FALSE      10797…
##  6 Twitte… I am the … Mon Dec 31…         25252         111582 FALSE      10797…
##  7 Twitte… I campaig… Mon Dec 31…         21960          90883 FALSE      10797…
##  8 Twitte… .....Exce… Mon Dec 31…         15081          72353 FALSE      10797…
##  9 Twitte… ...I camp… Mon Dec 31…         22000         100819 FALSE      10797…
## 10 Twitte… If anybod… Mon Dec 31…         17379          79095 FALSE      10797…
## # … with 17,926 more rows
…
The story of the above code is: We have our trump_tweets … probably I can skip this part now, and then we group our data by source and then we summarise our data as ntweets whereas ntweets equals to n(), i.e. number of rows. So, what group_by does, is to split the data into groups by a certain column (or columns). The subsequent steps are then became group-based analysis. This principle is called “Split-Apply-Combine strategy” by Wickham (2011).

this group-based analysis shows that there are many variants! In this analysis, we keep only those tweets from iPhone and Android only. So, which verb we should use? I give you 10 seconds to think.

Well…

trump_tweets %>% filter(str_detect(source, "Android|iPhone"))

## # A tibble: 15,267 x 7
##    source  text       created_at  retweet_count favorite_count is_retweet id_str
##    <chr>   <chr>      <chr>               <int>          <int> <lgl>      <chr> 
##  1 Twitte… Heads of … Mon Dec 31…         20519          74566 FALSE      10798…
##  2 Twitte… ....Senat… Mon Dec 31…         17027          63013 FALSE      10798…
##  3 Twitte… It’s incr… Mon Dec 31…         29355         125931 FALSE      10797…
##  4 Twitte… I’m in th… Mon Dec 31…         30742         131151 FALSE      10797…
##  5 Twitte… I’m in th… Mon Dec 31…          1123           4217 FALSE      10797…
##  6 Twitte… I am the … Mon Dec 31…         25252         111582 FALSE      10797…
##  7 Twitte… I campaig… Mon Dec 31…         21960          90883 FALSE      10797…
##  8 Twitte… .....Exce… Mon Dec 31…         15081          72353 FALSE      10797…
##  9 Twitte… ...I camp… Mon Dec 31…         22000         100819 FALSE      10797…
## 10 Twitte… If anybod… Mon Dec 31…         17379          79095 FALSE      10797…
## # … with 15,257 more rows

mutate is for creating new columns.

trump_tweets %>% filter(str_detect(source, "Android|iPhone")) %>% mutate(android = str_detect(source, "Android")) %>% select(android, text)

## # A tibble: 15,267 x 2
##    android text                                                                 
##    <lgl>   <chr>                                                                
##  1 FALSE   Heads of countries are calling wanting to know why Senator Schumer i…
##  2 FALSE   ....Senator Schumer, more than a year longer than any other Administ…
##  3 FALSE   It’s incredible how Democrats can all use their ridiculous sound bit…
##  4 FALSE   I’m in the Oval Office. Democrats, come back from vacation now and g…
##  5 FALSE   I’m in the Oval Office. Democrats, come back from vacation now and g…
##  6 FALSE   I am the only person in America who could say that, “I’m bringing ou…
##  7 FALSE   I campaigned on Border Security, which you cannot have without a str…
##  8 FALSE   .....Except the results are FAR BETTER than I ever said they were go…
##  9 FALSE   ...I campaigned on getting out of Syria and other places. Now when I…
## 10 FALSE   If anybody but Donald Trump did what I did in Syria, which was an IS…
## # … with 15,257 more rows

Last but not least, arrange is for sorting.

trump_tweets %>% filter(str_detect(source, "Android|iPhone")) %>% mutate(android = str_detect(source, "Android")) %>% select(android, text) %>% arrange(android)

## # A tibble: 15,267 x 2
##    android text                                                                 
##    <lgl>   <chr>                                                                
##  1 FALSE   Heads of countries are calling wanting to know why Senator Schumer i…
##  2 FALSE   ....Senator Schumer, more than a year longer than any other Administ…
##  3 FALSE   It’s incredible how Democrats can all use their ridiculous sound bit…
##  4 FALSE   I’m in the Oval Office. Democrats, come back from vacation now and g…
##  5 FALSE   I’m in the Oval Office. Democrats, come back from vacation now and g…
##  6 FALSE   I am the only person in America who could say that, “I’m bringing ou…
##  7 FALSE   I campaigned on Border Security, which you cannot have without a str…
##  8 FALSE   .....Except the results are FAR BETTER than I ever said they were go…
##  9 FALSE   ...I campaigned on getting out of Syria and other places. Now when I…
## 10 FALSE   If anybody but Donald Trump did what I did in Syria, which was an IS…
## # … with 15,257 more rows

It seems that it did nothing. We can set it to arrange by descending order. So that the tweets from Android are on top.

trump_tweets %>% filter(str_detect(source, "Android|iPhone")) %>% mutate(android = str_detect(source, "Android")) %>% select(android, text) %>% arrange(desc(android))

## # A tibble: 15,267 x 2
##    android text                                                                 
##    <lgl>   <chr>                                                                
##  1 TRUE    "Watch @JudgeJeanine on @FoxNews tonight at 9:00 P.M."               
##  2 TRUE    "ObamaCare will explode and we will all get together and piece toget…
##  3 TRUE    "LinkedIn Workforce Report: January and February were the strongest …
##  4 TRUE    "Don't let the FAKE NEWS tell you that there is big infighting in th…
##  5 TRUE    "I am working on a new system where there will be competition in the…
##  6 TRUE    "Don't worry, getting rid of state lines, which will promote competi…
##  7 TRUE    "For eight years Russia \"ran over\" President Obama, got stronger a…
##  8 TRUE    "Our wonderful new Healthcare Bill is now out for review and negotia…
##  9 TRUE    "122 vicious prisoners, released by the Obama Administration from Gi…
## 10 TRUE    "Who was it that secretly said to Russian President, \"Tell Vladimir…
## # … with 15,257 more rows
…
If you know nothing about automated content analysis, the traditional way of dealing with our data is to manually code all tweets. The word “code” as a verb can create confusion here, because it can also mean “programming.”3 In this programming-heavy book, I am going to use another verb for “coding” (in the social sciences’ sense): data categorizing. I believe this term can still capture most, but not all, nuances of the verb “coding” (in the social sciences’ sense). For the verb “coding” in the programming’s sense, I am going to use, as you can guess, programming.

Sorry for the detour. Traditionally, social scientists approach this problem by catagorizing the unstructured data into a form suitable for computer analysis. A tweet is a bunch of characters that a (naive) computer cannot extract meanings—or semantics—out of it. However, whether or not a tweet is positive is a semantic problem. Homo sapiens have a brain and some of us have the knowledge in English to determine the semantics of a piece of text. We need to tell the computer, what semantically is expressed in a tweet. This procedure is called data categorization.

In an academic setting, it usually means the principal investigator of this project (i.e. you) would assemble a team of student assistants to categorize all tweets by reading them one by one and then asserting every one of them if they are positive or not. In order to ensure interrater reliability, we usually assign at least two student assistants to read one tweet.

This procedure of data categorization is notoriously expensive. In Germany, for instance, one needs to pay a student assistant €15.8 per hour in 2020. Let’s assume a student assistant can read 4 tweets per minute. In order to read every single tweets (n = 15,267) by two students, it takes (15,267 x 2) / 4 = 7,633.5 man-minutes or 127.2 man-hours. Therefore, the principal investigator (i.e you) needs to pay €2009.76 just for the data categorization. It is not a handsome amount of money: You can buy 4464 packs of instant ramen that you can eat for about a year. But remember, now you are not doing this for your PhD thesis. It is just an exercise of a stupid book. If you are willing to pay this: “Danke schön!”, your student assistants say. If you are not willing to pay this, what should you do?

Instead of asking your student assistants to categorize all data, we can use a computer to categorize the data. But as I said previously, a (naive) computer cannot extract semantics from a piece of text. However, it can extract an approximated version of semantics —or a proxy measure— from text content.

how about we just ask them to code some of them? As an excercise, let’s say a random sample of 30 tweets?

trump_tweets %>% sample_n(30) %>% select(text)

## # A tibble: 30 x 1
##    text                                                                         
##    <chr>                                                                        
##  1 "\"@ScoodieGolden Twitter loves Trump. 1000's of retweets for Mr. Trump whil…
##  2 "The FAKE NEWS media (failing @nytimes, @NBCNews, @ABC, @CBS, @CNN) is not m…
##  3 "Women defy media narrative, love Trump at packed Michigan rally.\nVIDEO: ht…
##  4 "Uncomfortable looking NBC reporter Willie Geist calls me to ask for favors …
##  5 "The new Fake News narrative is that there is CHAOS in the White House. Wron…
##  6 "The \"deplorables\" came back to haunt Hillary.They expressed their feeling…
##  7 "Ivanka Trump will be interviewed on @foxandfriends."                        
##  8 "Denzel Washington gave a wonderful commencement speech over the weekend. Fr…
##  9 "Crooked Hillary's bad judgement forced her to announce that she would go to…
## 10 "\"@StephanieKrista: @realDonaldTrump THANK-YOU!!! I hope you are running fo…
## # … with 20 more rows
…
